Project 1: Exploratory Data Analysis
…
plots_joined %>% summarize(n = n_distinct(SUCCESSION_TYPE)) %>% 
    glimpse()

## Rows: 1
## Columns: 1
## $ n <int> 3

plots_joined %>% select("PLOT_CODE", "SUCCESSION_TYPE", 
    "RICHNESS", "EVENNESS") %>% group_by(PLOT_CODE) %>% 
    filter(RICHNESS > 7.0898876)

## # A tibble: 34 x 4
## # Groups:   PLOT_CODE [34]
##    PLOT_CODE SUCCESSION_TYPE RICHNESS EVENNESS
##    <chr>     <fct>              <int>    <dbl>
##  1 ABPL_1    Primary               14    0.913
##  2 ABPL_2    Primary               17    0.798
##  3 ABPL_3    Primary               16    0.684
##  4 ABPL_4    Primary               11    0.752
##  5 ABPL_5    Primary               13    0.92 
##  6 ABPL_6    Primary               10    0.896
##  7 ABPL_7    Primary               12    0.74 
##  8 ABPL_8    Primary               13    0.965
##  9 ABPL_9    Primary               20    0.919
## 10 ABPL_10   Primary               15    0.946
## # … with 24 more rows
…
plots_joined %>% group_by(PLOT_CODE) %>% summarize_if(is.numeric, 
    mean, na.rm = T)

## # A tibble: 89 x 18
##    PLOT_CODE FIRST_YEAR LAST_YEAR UTMEAST UTMNORTH  LONG   LAT POT_RAD HEAT_LOAD
##    <chr>          <dbl>     <dbl>   <dbl>    <dbl> <dbl> <dbl>   <dbl>     <dbl>
##  1 ABPL_1          1995      2009  566370  5118007  122.  46.2   0.893     0.881
##  2 ABPL_10         1995      2009  566130  5117818  122.  46.2   0.893     0.881
##  3 ABPL_2          1995      2009  566290  5117953  122.  46.2   0.893     0.881
##  4 ABPL_3          1995      2009  566201  5117904  122.  46.2   0.893     0.881
##  5 ABPL_4          1995      2009  566114  5117856  122.  46.2   0.893     0.881
##  6 ABPL_5          1995      2009  566342  5117961  122.  46.2   0.893     0.881
##  7 ABPL_6          1995      2009  566259  5117910  122.  46.2   0.893     0.881
##  8 ABPL_7          1995      2009  566173  5117863  122.  46.2   0.893     0.881
##  9 ABPL_8          1995      2009  566322  5117902  122.  46.2   0.893     0.881
## 10 ABPL_9          1995      2009  566234  5117853  122.  46.2   0.893     0.881
## # … with 79 more rows, and 9 more variables: ELEVATION <dbl>, SLOPE <dbl>,
## #   YEAR <dbl>, RICHNESS <dbl>, COVER_PERCENT <dbl>, HPRIME <dbl>,
## #   EVENNESS <dbl>, FREQUENCY <dbl>, TIME_SPAN <dbl>

plots_joined %>% group_by(PLOT_CODE) %>% summarize_if(is.numeric, 
    min, na.rm = T)

## # A tibble: 89 x 18
##    PLOT_CODE FIRST_YEAR LAST_YEAR UTMEAST UTMNORTH  LONG   LAT POT_RAD HEAT_LOAD
##    <chr>          <int>     <int>   <int>    <int> <dbl> <dbl>   <dbl>     <dbl>
##  1 ABPL_1          1995      2009  566370  5118007  122.  46.2   0.893     0.881
##  2 ABPL_10         1995      2009  566130  5117818  122.  46.2   0.893     0.881
##  3 ABPL_2          1995      2009  566290  5117953  122.  46.2   0.893     0.881
##  4 ABPL_3          1995      2009  566201  5117904  122.  46.2   0.893     0.881
##  5 ABPL_4          1995      2009  566114  5117856  122.  46.2   0.893     0.881
##  6 ABPL_5          1995      2009  566342  5117961  122.  46.2   0.893     0.881
##  7 ABPL_6          1995      2009  566259  5117910  122.  46.2   0.893     0.881
##  8 ABPL_7          1995      2009  566173  5117863  122.  46.2   0.893     0.881
##  9 ABPL_8          1995      2009  566322  5117902  122.  46.2   0.893     0.881
## 10 ABPL_9          1995      2009  566234  5117853  122.  46.2   0.893     0.881
## # … with 79 more rows, and 9 more variables: ELEVATION <int>, SLOPE <int>,
## #   YEAR <int>, RICHNESS <int>, COVER_PERCENT <dbl>, HPRIME <dbl>,
## #   EVENNESS <dbl>, FREQUENCY <dbl>, TIME_SPAN <int>

plots_joined %>% group_by(PLOT_CODE) %>% summarize_if(is.numeric, 
    max, na.rm = T)

## # A tibble: 89 x 18
##    PLOT_CODE FIRST_YEAR LAST_YEAR UTMEAST UTMNORTH  LONG   LAT POT_RAD HEAT_LOAD
##    <chr>          <int>     <int>   <int>    <int> <dbl> <dbl>   <dbl>     <dbl>
##  1 ABPL_1          1995      2009  566370  5118007  122.  46.2   0.893     0.881
##  2 ABPL_10         1995      2009  566130  5117818  122.  46.2   0.893     0.881
##  3 ABPL_2          1995      2009  566290  5117953  122.  46.2   0.893     0.881
##  4 ABPL_3          1995      2009  566201  5117904  122.  46.2   0.893     0.881
##  5 ABPL_4          1995      2009  566114  5117856  122.  46.2   0.893     0.881
##  6 ABPL_5          1995      2009  566342  5117961  122.  46.2   0.893     0.881
##  7 ABPL_6          1995      2009  566259  5117910  122.  46.2   0.893     0.881
##  8 ABPL_7          1995      2009  566173  5117863  122.  46.2   0.893     0.881
##  9 ABPL_8          1995      2009  566322  5117902  122.  46.2   0.893     0.881
## 10 ABPL_9          1995      2009  566234  5117853  122.  46.2   0.893     0.881
## # … with 79 more rows, and 9 more variables: ELEVATION <int>, SLOPE <int>,
## #   YEAR <int>, RICHNESS <int>, COVER_PERCENT <dbl>, HPRIME <dbl>,
## #   EVENNESS <dbl>, FREQUENCY <dbl>, TIME_SPAN <int>
…
